\relax 
\providecommand\hyper@newdestlabel[2]{}
\providecommand\HyperFirstAtBeginDocument{\AtBeginDocument}
\HyperFirstAtBeginDocument{\ifx\hyper@anchor\@undefined
\global\let\oldcontentsline\contentsline
\gdef\contentsline#1#2#3#4{\oldcontentsline{#1}{#2}{#3}}
\global\let\oldnewlabel\newlabel
\gdef\newlabel#1#2{\newlabelxx{#1}#2}
\gdef\newlabelxx#1#2#3#4#5#6{\oldnewlabel{#1}{{#2}{#3}}}
\AtEndDocument{\ifx\hyper@anchor\@undefined
\let\contentsline\oldcontentsline
\let\newlabel\oldnewlabel
\fi}
\fi}
\global\let\hyper@last\relax 
\gdef\HyperFirstAtBeginDocument#1{#1}
\providecommand\HyField@AuxAddToFields[1]{}
\providecommand\HyField@AuxAddToCoFields[2]{}
\select@language{italian}
\@writefile{toc}{\select@language{italian}}
\@writefile{lof}{\select@language{italian}}
\@writefile{lot}{\select@language{italian}}
\select@language{italian}
\@writefile{toc}{\select@language{italian}}
\@writefile{lof}{\select@language{italian}}
\@writefile{lot}{\select@language{italian}}
\@writefile{toc}{\contentsline {chapter}{\numberline {1}Introduzione}{2}{chapter.1}}
\@writefile{lof}{\addvspace {10\p@ }}
\@writefile{lot}{\addvspace {10\p@ }}
\newlabel{ch:cap1}{{1}{2}{Introduzione}{chapter.1}{}}
\@writefile{toc}{\contentsline {chapter}{\numberline {2}Conoscenza Statica}{3}{chapter.2}}
\@writefile{lof}{\addvspace {10\p@ }}
\@writefile{lot}{\addvspace {10\p@ }}
\newlabel{ch:cap2}{{2}{3}{Conoscenza Statica}{chapter.2}{}}
\@writefile{toc}{\contentsline {section}{\numberline {2.1}La mappa}{3}{section.2.1}}
\@writefile{toc}{\contentsline {subsection}{\numberline {2.1.1}Creazione della mappa}{3}{subsection.2.1.1}}
\@writefile{toc}{\contentsline {subsection}{\numberline {2.1.2}Display della mappa}{4}{subsection.2.1.2}}
\@writefile{toc}{\contentsline {section}{\numberline {2.2}Il traffico}{4}{section.2.2}}
\@writefile{toc}{\contentsline {chapter}{\numberline {3}Conoscenza dinamica}{5}{chapter.3}}
\@writefile{lof}{\addvspace {10\p@ }}
\@writefile{lot}{\addvspace {10\p@ }}
\newlabel{ch:cap3}{{3}{5}{Conoscenza dinamica}{chapter.3}{}}
\@writefile{toc}{\contentsline {section}{\numberline {3.1}Correlazione traffico}{5}{section.3.1}}
\@writefile{toc}{\contentsline {section}{\numberline {3.2}Stima del traffico e delle percorrenze}{6}{section.3.2}}
\@writefile{toc}{\contentsline {chapter}{\numberline {4}Ciclo decidi pianifica esegui}{7}{chapter.4}}
\@writefile{lof}{\addvspace {10\p@ }}
\@writefile{lot}{\addvspace {10\p@ }}
\newlabel{ch:cap4}{{4}{7}{Ciclo decidi pianifica esegui}{chapter.4}{}}
\@writefile{toc}{\contentsline {section}{\numberline {4.1}Logica implementativa}{7}{section.4.1}}
\@writefile{toc}{\contentsline {section}{\numberline {4.2}Decisioni implementate}{7}{section.4.2}}
\@writefile{toc}{\contentsline {chapter}{\numberline {5}Esempio di esecuzione}{9}{chapter.5}}
\@writefile{lof}{\addvspace {10\p@ }}
\@writefile{lot}{\addvspace {10\p@ }}
\newlabel{ch:cap5}{{5}{9}{Esempio di esecuzione}{chapter.5}{}}
\@writefile{toc}{\contentsline {section}{\numberline {5.1}Software necessari per l'esecuzione}{9}{section.5.1}}
\@writefile{toc}{\contentsline {section}{\numberline {5.2}Esecuzione}{9}{section.5.2}}
\@writefile{lof}{\contentsline {figure}{\numberline {5.1}{\ignorespaces Situazione iniziale}}{10}{figure.5.1}}
\newlabel{fig:start}{{5.1}{10}{Situazione iniziale}{figure.5.1}{}}
\@writefile{lof}{\contentsline {figure}{\numberline {5.2}{\ignorespaces L'agente segue il percorso pianificato}}{11}{figure.5.2}}
\newlabel{fig:cont1}{{5.2}{11}{L'agente segue il percorso pianificato}{figure.5.2}{}}
\@writefile{lof}{\contentsline {figure}{\numberline {5.3}{\ignorespaces L'agente segue il percorso pianificato}}{11}{figure.5.3}}
\newlabel{fig:cont2}{{5.3}{11}{L'agente segue il percorso pianificato}{figure.5.3}{}}
\@writefile{lof}{\contentsline {figure}{\numberline {5.4}{\ignorespaces L'agente ha raggiunto l'obiettivo}}{12}{figure.5.4}}
\newlabel{fig:end}{{5.4}{12}{L'agente ha raggiunto l'obiettivo}{figure.5.4}{}}
